emulator/Core.vcd
$timescale 1ps $end
$scope module Core $end
$var wire 1 ! clk $end
$var wire 1 " reset $end
$var wire 32 ^ exec_instr_reg $end
$var wire 32 _ exec_pc_reg $end
$var wire 32 h fetch_pc_reg $end
$var wire 32 i exec_pc4_reg $end
$scope module MuxPC $end
$var wire 3 8 io_pc_sel $end
$var wire 32 ` io_pc_excp $end
$var wire 32 b io_pc_jmp $end
$var wire 32 d io_pc_br $end
$var wire 32 e io_pc_jalr $end
$var wire 32 f io_pc_pc4 $end
$var wire 32 g io_pc_out $end
$upscope $end
$scope module RegFile $end
$var wire 1 ( io_rf_wen $end
$var wire 5 = io_rf_ra2 $end
$var wire 5 > io_rf_ra1 $end
$var wire 5 ? io_rf_wa $end
$var wire 32 B io_rf_rd2 $end
$var wire 32 I io_rf_rd1 $end
$var wire 32 \ io_rf_wd $end
$upscope $end
$scope module ImmGen $end
$var wire 32 E io_instr $end
$var wire 32 F io_immu_sxt $end
$var wire 32 N io_imms_sxt $end
$var wire 32 P io_immi_sxt $end
$var wire 32 a io_immj_sxt $end
$var wire 32 c io_immb_sxt $end
$upscope $end
$scope module Decoder $end
$var wire 1 # io_ctl_mem_en $end
$var wire 1 & io_ctl_rf_wen $end
$var wire 1 ' io_ctl_val_inst $end
$var wire 2 - io_ctl_mem_func $end
$var wire 2 / io_ctl_opa_sel $end
$var wire 2 1 io_ctl_opb_sel $end
$var wire 2 3 io_ctl_wb_sel $end
$var wire 3 5 io_ctl_msk_sel $end
$var wire 3 6 io_ctl_csr_cmd $end
$var wire 4 9 io_ctl_alu_func $end
$var wire 4 ; io_ctl_br_type $end
$var wire 32 D io_dec_instr $end
$upscope $end
$scope module MuxOpA $end
$var wire 2 0 io_opa_sel $end
$var wire 32 G io_opa_imz $end
$var wire 32 H io_opa_imu $end
$var wire 32 J io_opa_rsa $end
$var wire 32 K io_opa_alu_in $end
$upscope $end
$scope module MuxOpB $end
$var wire 2 2 io_opb_sel $end
$var wire 32 M io_opb_pc $end
$var wire 32 O io_opb_ims $end
$var wire 32 Q io_opb_imi $end
$var wire 32 R io_opb_rsb $end
$var wire 32 S io_opb_alu_in $end
$upscope $end
$scope module Alu $end
$var wire 1 % io_zero $end
$var wire 4 : io_op $end
$var wire 32 L io_a $end
$var wire 32 T io_b $end
$var wire 32 U io_out $end
$upscope $end
$scope module InstructionMem $end
$var wire 10 A io_addr $end
$var wire 32 ] io_data $end
$upscope $end
$scope module DataMem $end
$var wire 1 $ io_mem_en $end
$var wire 2 . io_mem_func $end
$var wire 10 @ io_addr $end
$var wire 32 C io_wr_data $end
$var wire 32 V io_rd_data $end
$upscope $end
$scope module MuxWB $end
$var wire 2 4 io_wb_sel $end
$var wire 32 W io_wb_mem $end
$var wire 32 X io_wb_csr $end
$var wire 32 Y io_wb_pc4 $end
$var wire 32 Z io_wb_alu $end
$var wire 32 [ io_wb_wd $end
$upscope $end
$scope module BranchLogic $end
$var wire 1 ) io_br_ltu $end
$var wire 1 * io_br_lt $end
$var wire 1 + io_br_eq $end
$var wire 1 , io_excp $end
$var wire 3 7 io_pc_sel $end
$var wire 4 < io_ctl_br_type $end
$upscope $end
$upscope $end
$enddefinitions $end
$dumpvars
$end
#0
b1 !
b1 "
b0 #
b0 $
b1 %
b0 &
b0 '
b0 (
b0 )
b0 *
b1 +
b1 ,
b00 -
b00 .
b00 /
b00 0
b00 1
b00 2
b00 3
b00 4
b010 5
b000 6
b100 7
b100 8
b0000 9
b0000 :
b0000 ;
b0000 <
b00000 =
b00000 >
b00000 ?
b0000000000 @
b0000000000 A
b00000000000000000000000000000000 B
b00000000000000000000000000000000 C
b00000000000000000000000000000000 D
b00000000000000000000000000000000 E
b00000000000000000000000000000000 F
b00000000000000000000000000000000 G
b00000000000000000000000000000000 H
b00000000000000000000000000000000 I
b00000000000000000000000000000000 J
b00000000000000000000000000000000 K
b00000000000000000000000000000000 L
b00000000000000000000000000000000 M
b00000000000000000000000000000000 N
b00000000000000000000000000000000 O
b00000000000000000000000000000000 P
b00000000000000000000000000000000 Q
b00000000000000000000000000000000 R
b00000000000000000000000000000000 S
b00000000000000000000000000000000 T
b00000000000000000000000000000000 U
b00000000000000000000000000000000 V
b00000000000000000000000000000000 W
b00000000000000000000000000000000 X
b00000000000000000000000000000000 Y
b00000000000000000000000000000000 Z
b00000000000000000000000000000000 [
b00000000000000000000000000000000 \
b00000000000000000000000000000000 ]
b00000000000000000000000000000000 ^
b00000000000000000000000000000000 _
b00000000000000000000000000000000 `
b00000000000000000000000000000000 a
b00000000000000000000000000000000 b
b00000000000000000000000000000000 c
b00000000000000000000000000000000 d
b00000000000000000000000000000000 e
b00000000000000000000000000000001 f
b00000000000000000000000000000000 g
b00000000000000000000000000000000 h
b00000000000000000000000000000000 i
#1
b0 !
#2
b1 !
b1 "
b1 &
b1 '
b1 (
b0 ,
b10 1
b10 2
b000 7
b000 8
b0101 9
b0101 :
b00000000000000000100000000110011 D
b00000000000000000100000000110011 E
b00000000000000000100000000000000 F
b00000000000000000100000000000000 G
b00000000000000000100000000000000 H
b00000000000000000100000000110011 ^
b00000000000000000010000000000000 a
b00000000000000000010000000000000 b
b00000000000000000000000000000001 g
#3
b0 !
#4
b1 !
#5
b0 !
#6
b1 !
#7
b0 !
#8
b1 !
#9
b0 !
#10
b1 !
b0 "
b00000000010100010000000110010011 ]
#11
b0 !
#12
b1 !
b0 %
b0001 9
b0001 :
b00101 =
b00010 >
b00011 ?
b0000000101 @
b0000000001 A
b00000000010100010000000110010011 D
b00000000010100010000000110010011 E
b00000000010100010000000000000000 F
b00000000010100010000000000000000 G
b00000000010100010000000000000000 H
b00000000000000000000000000000011 N
b00000000000000000000000000000011 O
b00000000000000000000000000000101 P
b00000000000000000000000000000101 Q
b00000000000000000000000000000101 S
b00000000000000000000000000000101 T
b00000000000000000000000000000101 U
b00000000000000000000000000000101 X
b00000000000000000000000000000001 Y
b00000000000000000000000000000101 Z
b00000000000000000000000000000101 [
b00000000000000000000000000000101 \
b00000000001000011010001000010011 ]
b00000000010100010000000110010011 ^
b00000000000000001000010000000010 a
b00000000000000001000010000000010 b
b00000000000000000000000000000101 e
b00000000000000000000000000000010 f
b00000000000000000000000000000010 g
b00000000000000000000000000000001 h
b00000000000000000000000000000001 i
#13
b0 !
#14
b1 !
b1 %
b0 +
b0110 9
b0110 :
b00010 =
b00011 >
b00100 ?
b0000000000 @
b0000000010 A
b00000000001000011010001000010011 D
b00000000001000011010001000010011 E
b00000000001000011010000000000000 F
b00000000001000011010000000000000 G
b00000000001000011010000000000000 H
b00000000000000000000000000000101 I
b00000000000000000000000000000101 J
b00000000000000000000000000000101 K
b00000000000000000000000000000101 L
b00000000000000000000000000000001 M
b00000000000000000000000000000100 N
b00000000000000000000000000000100 O
b00000000000000000000000000000010 P
b00000000000000000000000000000010 Q
b00000000000000000000000000000010 S
b00000000000000000000000000000010 T
b00000000000000000000000000000000 U
b00000000000000000000000000000000 X
b00000000000000000000000000000010 Y
b00000000000000000000000000000000 Z
b00000000000000000000000000000000 [
b00000000000000000000000000000000 \
b00000000011000011011001010010011 ]
b00000000001000011010001000010011 ^
b00000000000000000000000000000001 _
b00000000000000001101000000000001 a
b00000000000000001101000000000010 b
b00000000000000000000000000000001 d
b00000000000000000000000000000111 e
b00000000000000000000000000000011 f
b00000000000000000000000000000011 g
b00000000000000000000000000000010 h
b00000000000000000000000000000010 i
#15
b0 !
#16
b1 !
b0 %
b0111 9
b0111 :
b00110 =
b00101 ?
b0000000001 @
b0000000011 A
b00000000011000011011001010010011 D
b00000000011000011011001010010011 E
b00000000011000011011000000000000 F
b00000000011000011011000000000000 G
b00000000011000011011000000000000 H
b00000000000000000000000000000010 M
b00000000000000000000000000000101 N
b00000000000000000000000000000101 O
b00000000000000000000000000000110 P
b00000000000000000000000000000110 Q
b00000000000000000000000000000110 S
b00000000000000000000000000000110 T
b00000000000000000000000000000001 U
b00000000000000000000000000000001 X
b00000000000000000000000000000011 Y
b00000000000000000000000000000001 Z
b00000000000000000000000000000001 [
b00000000000000000000000000000001 \
b00000000110000011100001100010011 ]
b00000000011000011011001010010011 ^
b00000000000000000000000000000010 _
b00000000000000001101100000000011 a
b00000000000000001101100000000101 b
b00000000000000000000000000000010 d
b00000000000000000000000000001011 e
b00000000000000000000000000000100 f
b00000000000000000000000000000100 g
b00000000000000000000000000000011 h
b00000000000000000000000000000011 i
#17
b0 !
#18
b1 !
b0101 9
b0101 :
b01100 =
b00110 ?
b0000001001 @
b0000000100 A
b00000000110000011100001100010011 D
b00000000110000011100001100010011 E
b00000000110000011100000000000000 F
b00000000110000011100000000000000 G
b00000000110000011100000000000000 H
b00000000000000000000000000000011 M
b00000000000000000000000000000110 N
b00000000000000000000000000000110 O
b00000000000000000000000000001100 P
b00000000000000000000000000001100 Q
b00000000000000000000000000001100 S
b00000000000000000000000000001100 T
b00000000000000000000000000001001 U
b00000000000000000000000000001001 X
b00000000000000000000000000000100 Y
b00000000000000000000000000001001 Z
b00000000000000000000000000001001 [
b00000000000000000000000000001001 \
b00000000101100011110001110010011 ]
b00000000110000011100001100010011 ^
b00000000000000000000000000000011 _
b00000000000000001110000000000110 a
b00000000000000001110000000001001 b
b00000000000000000000000000000011 d
b00000000000000000000000000010001 e
b00000000000000000000000000000101 f
b00000000000000000000000000000101 g
b00000000000000000000000000000100 h
b00000000000000000000000000000100 i
#19
b0 !
#20
b1 !
b0100 9
b0100 :
b01011 =
b00111 ?
b0000001111 @
b0000000101 A
b00000000101100011110001110010011 D
b00000000101100011110001110010011 E
b00000000101100011110000000000000 F
b00000000101100011110000000000000 G
b00000000101100011110000000000000 H
b00000000000000000000000000000100 M
b00000000000000000000000000000111 N
b00000000000000000000000000000111 O
b00000000000000000000000000001011 P
b00000000000000000000000000001011 Q
b00000000000000000000000000001011 S
b00000000000000000000000000001011 T
b00000000000000000000000000001111 U
b00000000000000000000000000001111 X
b00000000000000000000000000000101 Y
b00000000000000000000000000001111 Z
b00000000000000000000000000001111 [
b00000000000000000000000000001111 \
b00000011101000111111000100010011 ]
b00000000101100011110001110010011 ^
b00000000000000000000000000000100 _
b00000000000000001111010000000101 a
b00000000000000001111010000001001 b
b00000000000000000000000000000100 d
b00000000000000000000000000010000 e
b00000000000000000000000000000110 f
b00000000000000000000000000000110 g
b00000000000000000000000000000101 h
b00000000000000000000000000000101 i
#21
b0 !
#22
b1 !
b0011 9
b0011 :
b11010 =
b00111 >
b00010 ?
b0000001010 @
b0000000110 A
b00000011101000111111000100010011 D
b00000011101000111111000100010011 E
b00000011101000111111000000000000 F
b00000011101000111111000000000000 G
b00000011101000111111000000000000 H
b00000000000000000000000000001111 I
b00000000000000000000000000001111 J
b00000000000000000000000000001111 K
b00000000000000000000000000001111 L
b00000000000000000000000000000101 M
b00000000000000000000000000100010 N
b00000000000000000000000000100010 O
b00000000000000000000000000111010 P
b00000000000000000000000000111010 Q
b00000000000000000000000000111010 S
b00000000000000000000000000111010 T
b00000000000000000000000000001010 U
b00000000000000000000000000001010 X
b00000000000000000000000000000110 Y
b00000000000000000000000000001010 Z
b00000000000000000000000000001010 [
b00000000000000000000000000001010 \
b00000000000000000000000000010011 ]
b00000011101000111111000100010011 ^
b00000000000000000000000000000101 _
b00000000000000011111100000011101 a
b00000000000000011111100000100010 b
b00000000000000000000000000000101 d
b00000000000000000000000001001001 e
b00000000000000000000000000000111 f
b00000000000000000000000000000111 g
b00000000000000000000000000000110 h
b00000000000000000000000000000110 i
#23
b0 !
#24
b1 !
b1 %
b1 +
b0001 9
b0001 :
b00000 =
b00000 >
b00000 ?
b0000000000 @
b0000000111 A
b00000000000000000000000000010011 D
b00000000000000000000000000010011 E
b00000000000000000000000000000000 F
b00000000000000000000000000000000 G
b00000000000000000000000000000000 H
b00000000000000000000000000000000 I
b00000000000000000000000000000000 J
b00000000000000000000000000000000 K
b00000000000000000000000000000000 L
b00000000000000000000000000000110 M
b00000000000000000000000000000000 N
b00000000000000000000000000000000 O
b00000000000000000000000000000000 P
b00000000000000000000000000000000 Q
b00000000000000000000000000000000 S
b00000000000000000000000000000000 T
b00000000000000000000000000000000 U
b00000000000000000000000000000000 X
b00000000000000000000000000000111 Y
b00000000000000000000000000000000 Z
b00000000000000000000000000000000 [
b00000000000000000000000000000000 \
b00000000000000000000000000010011 ^
b00000000000000000000000000000110 _
b00000000000000000000000000000000 a
b00000000000000000000000000000110 b
b00000000000000000000000000000110 d
b00000000000000000000000000000000 e
b00000000000000000000000000001000 f
b00000000000000000000000000001000 g
b00000000000000000000000000000111 h
b00000000000000000000000000000111 i
#25
b0 !
#26
b1 !
b0000001000 A
b00000000000000000000000000000111 M
b00000000000000000000000000001000 Y
b00000000000000000000000000000111 _
b00000000000000000000000000000111 b
b00000000000000000000000000000111 d
b00000000000000000000000000001001 f
b00000000000000000000000000001001 g
b00000000000000000000000000001000 h
b00000000000000000000000000001000 i
#27
b0 !
#28
b1 !
b0000001001 A
b00000000000000000000000000001000 M
b00000000000000000000000000001001 Y
b00000000000000000000000000001000 _
b00000000000000000000000000001000 b
b00000000000000000000000000001000 d
b00000000000000000000000000001010 f
b00000000000000000000000000001010 g
b00000000000000000000000000001001 h
b00000000000000000000000000001001 i
#29
b0 !
#30
b1 !
b0000001010 A
b00000000000000000000000000001001 M
b00000000000000000000000000001010 Y
b01000000010000000000000010010011 ]
b00000000000000000000000000001001 _
b00000000000000000000000000001001 b
b00000000000000000000000000001001 d
b00000000000000000000000000001011 f
b00000000000000000000000000001011 g
b00000000000000000000000000001010 h
b00000000000000000000000000001010 i
#31
b0 !
#32
b1 !
b0 %
b00100 =
b00001 ?
b0000000100 @
b0000001011 A
b01000000010000000000000010010011 D
b01000000010000000000000010010011 E
b01000000010000000000000000000000 F
b01000000010000000000000000000000 G
b01000000010000000000000000000000 H
b00000000000000000000000000001010 M
b00000000000000000000010000000001 N
b00000000000000000000010000000001 O
b00000000000000000000010000000100 P
b00000000000000000000010000000100 Q
b00000000000000000000010000000100 S
b00000000000000000000010000000100 T
b00000000000000000000010000000100 U
b00000000000000000000010000000100 X
b00000000000000000000000000001011 Y
b00000000000000000000010000000100 Z
b00000000000000000000010000000100 [
b00000000000000000000010000000100 \
b00000001010100001001000100010011 ]
b01000000010000000000000010010011 ^
b00000000000000000000000000001010 _
b00000000000000000000001000000010 a
b00000000000000000000001000001100 b
b00000000000000000000000000001010 d
b00000000000000000000010000000100 e
b00000000000000000000000000001100 f
b00000000000000000000000000001100 g
b00000000000000000000000000001011 h
b00000000000000000000000000001011 i
#33
b0 !
#34
b1 !
b0 +
b1100 9
b1100 :
b10101 =
b00001 >
b00010 ?
b0000000000 @
b0000001100 A
b00000001010100001001000100010011 D
b00000001010100001001000100010011 E
b00000001010100001001000000000000 F
b00000001010100001001000000000000 G
b00000001010100001001000000000000 H
b00000000000000000000010000000100 I
b00000000000000000000010000000100 J
b00000000000000000000010000000100 K
b00000000000000000000010000000100 L
b00000000000000000000000000001011 M
b00000000000000000000000000000010 N
b00000000000000000000000000000010 O
b00000000000000000000000000010101 P
b00000000000000000000000000010101 Q
b00000000000000000000000000010101 S
b00000000000000000000000000010101 T
b10000000100000000000000000000000 U
b10000000100000000000000000000000 X
b00000000000000000000000000001100 Y
b10000000100000000000000000000000 Z
b10000000100000000000000000000000 [
b10000000100000000000000000000000 \
b00000000001100010101000110010011 ]
b00000001010100001001000100010011 ^
b00000000000000000000000000001011 _
b00000000000000000100110000001010 a
b00000000000000000100110000010101 b
b00000000000000000000000000001011 d
b00000000000000000000010000011001 e
b00000000000000000000000000001101 f
b00000000000000000000000000001101 g
b00000000000000000000000000001100 h
b00000000000000000000000000001100 i
#35
b0 !
#36
b1 !
b1 *
b1101 9
b1101 :
b00011 =
b00010 >
b00011 ?
b0000001101 A
b00000000000000000000000000000101 B
b00000000000000000000000000000101 C
b00000000001100010101000110010011 D
b00000000001100010101000110010011 E
b00000000001100010101000000000000 F
b00000000001100010101000000000000 G
b00000000001100010101000000000000 H
b10000000100000000000000000000000 I
b10000000100000000000000000000000 J
b10000000100000000000000000000000 K
b10000000100000000000000000000000 L
b00000000000000000000000000001100 M
b00000000000000000000000000000011 N
b00000000000000000000000000000011 O
b00000000000000000000000000000011 P
b00000000000000000000000000000011 Q
b00000000000000000000000000000101 R
b00000000000000000000000000000011 S
b00000000000000000000000000000011 T
b00010000000100000000000000000000 U
b00010000000100000000000000000000 X
b00000000000000000000000000001101 Y
b00010000000100000000000000000000 Z
b00010000000100000000000000000000 [
b00010000000100000000000000000000 \
b01000000001100010101001000010011 ]
b00000000001100010101000110010011 ^
b00000000000000000000000000001100 _
b00000000000000001010110000000001 a
b00000000000000001010110000001101 b
b00000000000000000000000000001100 d
b10000000100000000000000000000011 e
b00000000000000000000000000001110 f
b00000000000000000000000000001110 g
b00000000000000000000000000001101 h
b00000000000000000000000000001101 i
#37
b0 !
#38
b1 !
b1110 9
b1110 :
b00100 ?
b0000001110 A
b00010000000100000000000000000000 B
b00010000000100000000000000000000 C
b01000000001100010101001000010011 D
b01000000001100010101001000010011 E
b01000000001100010101000000000000 F
b01000000001100010101000000000000 G
b01000000001100010101000000000000 H
b00000000000000000000000000001101 M
b00000000000000000000010000000100 N
b00000000000000000000010000000100 O
b00000000000000000000010000000011 P
b00000000000000000000010000000011 Q
b00010000000100000000000000000000 R
b00000000000000000000010000000011 S
b00000000000000000000010000000011 T
b11110000000100000000000000000000 U
b11110000000100000000000000000000 X
b00000000000000000000000000001110 Y
b11110000000100000000000000000000 Z
b11110000000100000000000000000000 [
b11110000000100000000000000000000 \
b00000000000000000000000000010011 ]
b01000000001100010101001000010011 ^
b00000000000000000000000000001101 _
b00000000000000001010111000000001 a
b00000000000000001010111000001110 b
b00000000000000000000000000001101 d
b10000000100000000000010000000011 e
b00000000000000000000000000001111 f
b00000000000000000000000000001111 g
b00000000000000000000000000001110 h
b00000000000000000000000000001110 i
#39
b0 !
#40
b1 !
b1 %
b0 *
b1 +
b0001 9
b0001 :
b00000 =
b00000 >
b00000 ?
b0000001111 A
b00000000000000000000000000000000 B
b00000000000000000000000000000000 C
b00000000000000000000000000010011 D
b00000000000000000000000000010011 E
b00000000000000000000000000000000 F
b00000000000000000000000000000000 G
b00000000000000000000000000000000 H
b00000000000000000000000000000000 I
b00000000000000000000000000000000 J
b00000000000000000000000000000000 K
b00000000000000000000000000000000 L
b00000000000000000000000000001110 M
b00000000000000000000000000000000 N
b00000000000000000000000000000000 O
b00000000000000000000000000000000 P
b00000000000000000000000000000000 Q
b00000000000000000000000000000000 R
b00000000000000000000000000000000 S
b00000000000000000000000000000000 T
b00000000000000000000000000000000 U
b00000000000000000000000000000000 X
b00000000000000000000000000001111 Y
b00000000000000000000000000000000 Z
b00000000000000000000000000000000 [
b00000000000000000000000000000000 \
b00000000000000000000000000010011 ^
b00000000000000000000000000001110 _
b00000000000000000000000000000000 a
b00000000000000000000000000001110 b
b00000000000000000000000000001110 d
b00000000000000000000000000000000 e
b00000000000000000000000000010000 f
b00000000000000000000000000010000 g
b00000000000000000000000000001111 h
b00000000000000000000000000001111 i
#41
b0 !
#42
b1 !
b0000010000 A
b00000000000000000000000000001111 M
b00000000000000000000000000010000 Y
b00000000000000000000000000001111 _
b00000000000000000000000000001111 b
b00000000000000000000000000001111 d
b00000000000000000000000000010001 f
b00000000000000000000000000010001 g
b00000000000000000000000000010000 h
b00000000000000000000000000010000 i
#43
b0 !
#44
b1 !
b0000010001 A
b00000000000000000000000000010000 M
b00000000000000000000000000010001 Y
b00000000000000000000000000010000 _
b00000000000000000000000000010000 b
b00000000000000000000000000010000 d
b00000000000000000000000000010010 f
b00000000000000000000000000010010 g
b00000000000000000000000000010001 h
b00000000000000000000000000010001 i
#45
b0 !
#46
b1 !
b0000010010 A
b00000000000000000000000000010001 M
b00000000000000000000000000010010 Y
b00000000000000000000000000010001 _
b00000000000000000000000000010001 b
b00000000000000000000000000010001 d
b00000000000000000000000000010011 f
b00000000000000000000000000010011 g
b00000000000000000000000000010010 h
b00000000000000000000000000010010 i
#47
b0 !
#48
b1 !
b0000010011 A
b00000000000000000000000000010010 M
b00000000000000000000000000010011 Y
b00000000000000000000000000010010 _
b00000000000000000000000000010010 b
b00000000000000000000000000010010 d
b00000000000000000000000000010100 f
b00000000000000000000000000010100 g
b00000000000000000000000000010011 h
b00000000000000000000000000010011 i
#49
b0 !
#50
b1 !
b0000010100 A
b00000000000000000000000000010011 M
b00000000000000000000000000010100 Y
b01001010101111001101000100110111 ]
b00000000000000000000000000010011 _
b00000000000000000000000000010011 b
b00000000000000000000000000010011 d
b00000000000000000000000000010101 f
b00000000000000000000000000010101 g
b00000000000000000000000000010100 h
b00000000000000000000000000010100 i
#51
b0 !
#52
b1 !
b0 %
b01 /
b01 0
b00 1
b00 2
b1111 9
b1111 :
b01011 =
b11001 >
b00010 ?
b0000010101 A
b01001010101111001101000100110111 D
b01001010101111001101000100110111 E
b01001010101111001101000000000000 F
b01001010101111001101000000000000 G
b01001010101111001101000000000000 H
b01001010101111001101000000000000 K
b01001010101111001101000000000000 L
b00000000000000000000000000010100 M
b00000000000000000000010010100010 N
b00000000000000000000010010100010 O
b00000000000000000000010010101011 P
b00000000000000000000010010101011 Q
b01001010101111001101000000000000 U
b01001010101111001101000000000000 X
b00000000000000000000000000010101 Y
b01001010101111001101000000000000 Z
b01001010101111001101000000000000 [
b01001010101111001101000000000000 \
b00100011110010111101000110110111 ]
b01001010101111001101000100110111 ^
b00000000000000000000000000010100 _
b00000000000001100110111001010101 a
b00000000000001100110111001101001 b
b00000000000000000000000000010100 d
b00000000000000000000010010101011 e
b00000000000000000000000000010110 f
b00000000000000000000000000010110 g
b00000000000000000000000000010101 h
b00000000000000000000000000010101 i
#53
b0 !
#54
b1 !
b11100 =
b10111 >
b00011 ?
b0000010110 A
b00100011110010111101000110110111 D
b00100011110010111101000110110111 E
b00100011110010111101000000000000 F
b00100011110010111101000000000000 G
b00100011110010111101000000000000 H
b00100011110010111101000000000000 K
b00100011110010111101000000000000 L
b00000000000000000000000000010101 M
b00000000000000000000001000100011 N
b00000000000000000000001000100011 O
b00000000000000000000001000111100 P
b00000000000000000000001000111100 Q
b00100011110010111101000000000000 U
b00100011110010111101000000000000 X
b00000000000000000000000000010110 Y
b00100011110010111101000000000000 Z
b00100011110010111101000000000000 [
b00100011110010111101000000000000 \
b00000000000000000100001000010111 ]
b00100011110010111101000110110111 ^
b00000000000000000000000000010101 _
b00000000000001011110100100011110 a
b00000000000001011110100100110011 b
b00000000000000000000000000010101 d
b00000000000000000000001000111100 e
b00000000000000000000000000010111 f
b00000000000000000000000000010111 g
b00000000000000000000000000010110 h
b00000000000000000000000000010110 i
#55
b0 !
#56
b1 !
b01 1
b01 2
b0001 9
b0001 :
b00000 =
b00000 >
b00100 ?
b0000010110 @
b0000010111 A
b00000000000000000100001000010111 D
b00000000000000000100001000010111 E
b00000000000000000100000000000000 F
b00000000000000000100000000000000 G
b00000000000000000100000000000000 H
b00000000000000000100000000000000 K
b00000000000000000100000000000000 L
b00000000000000000000000000010110 M
b00000000000000000000000000000100 N
b00000000000000000000000000000100 O
b00000000000000000000000000000000 P
b00000000000000000000000000000000 Q
b00000000000000000000000000010110 S
b00000000000000000000000000010110 T
b00000000000000000100000000010110 U
b00000000000000000100000000010110 X
b00000000000000000000000000010111 Y
b00000000000000000100000000010110 Z
b00000000000000000100000000010110 [
b00000000000000000100000000010110 \
b00000000000000001000001010010111 ]
b00000000000000000100001000010111 ^
b00000000000000000000000000010110 _
b00000000000000000010000000000000 a
b00000000000000000010000000010110 b
b00000000000000000000000000010110 d
b00000000000000000000000000000000 e
b00000000000000000000000000011000 f
b00000000000000000000000000011000 g
b00000000000000000000000000010111 h
b00000000000000000000000000010111 i
#57
b0 !
#58
b1 !
b0 +
b00001 >
b00101 ?
b0000010111 @
b0000011000 A
b00000000000000001000001010010111 D
b00000000000000001000001010010111 E
b00000000000000001000000000000000 F
b00000000000000001000000000000000 G
b00000000000000001000000000000000 H
b00000000000000000000010000000100 I
b00000000000000000000010000000100 J
b00000000000000001000000000000000 K
b00000000000000001000000000000000 L
b00000000000000000000000000010111 M
b00000000000000000000000000000101 N
b00000000000000000000000000000101 O
b00000000000000000000000000010111 S
b00000000000000000000000000010111 T
b00000000000000001000000000010111 U
b00000000000000001000000000010111 X
b00000000000000000000000000011000 Y
b00000000000000001000000000010111 Z
b00000000000000001000000000010111 [
b00000000000000001000000000010111 \
b00000000000000000000000000010011 ]
b00000000000000001000001010010111 ^
b00000000000000000000000000010111 _
b00000000000000000100000000000000 a
b00000000000000000100000000010111 b
b00000000000000000000000000010111 d
b00000000000000000000010000000100 e
b00000000000000000000000000011001 f
b00000000000000000000000000011001 g
b00000000000000000000000000011000 h
b00000000000000000000000000011000 i
#59
b0 !
#60
b1 !
b1 %
b1 +
b00 /
b00 0
b10 1
b10 2
b00000 >
b00000 ?
b0000000000 @
b0000011001 A
b00000000000000000000000000010011 D
b00000000000000000000000000010011 E
b00000000000000000000000000000000 F
b00000000000000000000000000000000 G
b00000000000000000000000000000000 H
b00000000000000000000000000000000 I
b00000000000000000000000000000000 J
b00000000000000000000000000000000 K
b00000000000000000000000000000000 L
b00000000000000000000000000011000 M
b00000000000000000000000000000000 N
b00000000000000000000000000000000 O
b00000000000000000000000000000000 S
b00000000000000000000000000000000 T
b00000000000000000000000000000000 U
b00000000000000000000000000000000 X
b00000000000000000000000000011001 Y
b00000000000000000000000000000000 Z
b00000000000000000000000000000000 [
b00000000000000000000000000000000 \
b00000000000000000000000000010011 ^
b00000000000000000000000000011000 _
b00000000000000000000000000000000 a
b00000000000000000000000000011000 b
b00000000000000000000000000011000 d
b00000000000000000000000000000000 e
b00000000000000000000000000011010 f
b00000000000000000000000000011010 g
b00000000000000000000000000011001 h
b00000000000000000000000000011001 i
#61
b0 !
#62
b1 !
b0000011010 A
b00000000000000000000000000011001 M
b00000000000000000000000000011010 Y
b00000000000000000000000000011001 _
b00000000000000000000000000011001 b
b00000000000000000000000000011001 d
b00000000000000000000000000011011 f
b00000000000000000000000000011011 g
b00000000000000000000000000011010 h
b00000000000000000000000000011010 i
#63
b0 !
#64
b1 !
b0000011011 A
b00000000000000000000000000011010 M
b00000000000000000000000000011011 Y
b00000000000000000000000000011010 _
b00000000000000000000000000011010 b
b00000000000000000000000000011010 d
b00000000000000000000000000011100 f
b00000000000000000000000000011100 g
b00000000000000000000000000011011 h
b00000000000000000000000000011011 i
#65
b0 !
#66
b1 !
b0000011100 A
b00000000000000000000000000011011 M
b00000000000000000000000000011100 Y
b01001010101111001101000100110111 ]
b00000000000000000000000000011011 _
b00000000000000000000000000011011 b
b00000000000000000000000000011011 d
b00000000000000000000000000011101 f
b00000000000000000000000000011101 g
b00000000000000000000000000011100 h
b00000000000000000000000000011100 i
#67
b0 !
#68
b1 !
b0 %
b01 /
b01 0
b00 1
b00 2
b1111 9
b1111 :
b01011 =
b11001 >
b00010 ?
b0000011101 A
b01001010101111001101000100110111 D
b01001010101111001101000100110111 E
b01001010101111001101000000000000 F
b01001010101111001101000000000000 G
b01001010101111001101000000000000 H
b01001010101111001101000000000000 K
b01001010101111001101000000000000 L
b00000000000000000000000000011100 M
b00000000000000000000010010100010 N
b00000000000000000000010010100010 O
b00000000000000000000010010101011 P
b00000000000000000000010010101011 Q
b01001010101111001101000000000000 U
b01001010101111001101000000000000 X
b00000000000000000000000000011101 Y
b01001010101111001101000000000000 Z
b01001010101111001101000000000000 [
b01001010101111001101000000000000 \
b00100011110010111101000110110111 ]
b01001010101111001101000100110111 ^
b00000000000000000000000000011100 _
b00000000000001100110111001010101 a
b00000000000001100110111001110001 b
b00000000000000000000000000011100 d
b00000000000000000000010010101011 e
b00000000000000000000000000011110 f
b00000000000000000000000000011110 g
b00000000000000000000000000011101 h
b00000000000000000000000000011101 i
#69
b0 !
#70
b1 !
b11100 =
b10111 >
b00011 ?
b0000011110 A
b00100011110010111101000110110111 D
b00100011110010111101000110110111 E
b00100011110010111101000000000000 F
b00100011110010111101000000000000 G
b00100011110010111101000000000000 H
b00100011110010111101000000000000 K
b00100011110010111101000000000000 L
b00000000000000000000000000011101 M
b00000000000000000000001000100011 N
b00000000000000000000001000100011 O
b00000000000000000000001000111100 P
b00000000000000000000001000111100 Q
b00100011110010111101000000000000 U
b00100011110010111101000000000000 X
b00000000000000000000000000011110 Y
b00100011110010111101000000000000 Z
b00100011110010111101000000000000 [
b00100011110010111101000000000000 \
b00000000001000000010000100100011 ]
b00100011110010111101000110110111 ^
b00000000000000000000000000011101 _
b00000000000001011110100100011110 a
b00000000000001011110100100111011 b
b00000000000000000000000000011101 d
b00000000000000000000001000111100 e
b00000000000000000000000000011111 f
b00000000000000000000000000011111 g
b00000000000000000000000000011110 h
b00000000000000000000000000011110 i
#71
b0 !
